{"failedCount":0,"prefixedPath":"classpath:com\/api\/automation\/getRequest\/ValidateFuzzyMatcher.feature","packageQualifiedName":"com.api.automation.getRequest.ValidateFuzzyMatcher","loopIndex":-1,"relativePath":"com\/api\/automation\/getRequest\/ValidateFuzzyMatcher.feature","scenarioResults":[{"sectionIndex":0,"stepResults":[{"result":{"nanos":418600,"startTime":1705060073859,"endTime":1705060073859,"millis":0.4186,"status":"passed"},"step":{"background":true,"line":4,"prefix":"Given","index":0,"text":"url 'https:\/\/reqres.in\/'"},"stepLog":"17:17:53.857 karate.env system property was: null \n"},{"result":{"nanos":85900,"startTime":1705060073860,"endTime":1705060073860,"millis":0.0859,"status":"passed"},"step":{"line":7,"prefix":"Given","index":0,"text":"path '\/api\/users?page=2'"}},{"result":{"nanos":164800,"startTime":1705060073860,"endTime":1705060073860,"millis":0.1648,"status":"passed"},"step":{"line":8,"prefix":"And","index":1,"text":"header Accept = 'application\/json'"}},{"result":{"nanos":74085100,"startTime":1705060073860,"endTime":1705060073934,"millis":74.0851,"status":"passed"},"step":{"line":9,"prefix":"When","index":2,"text":"method get"},"stepLog":"17:17:53.862 request:\n1 > GET https:\/\/reqres.in\/api\/users%3Fpage=2\n1 > Accept: application\/json\n1 > Host: reqres.in\n1 > Connection: Keep-Alive\n1 > User-Agent: Apache-HttpClient\/4.5.14 (Java\/17.0.9)\n1 > Accept-Encoding: gzip,deflate\n\n\n17:17:53.932 response time in milliseconds: 69\n1 < 200\n1 < Date: Fri, 12 Jan 2024 11:47:53 GMT\n1 < Content-Type: application\/json; charset=utf-8\n1 < Transfer-Encoding: chunked\n1 < Connection: keep-alive\n1 < Report-To: {\"group\":\"heroku-nel\",\"max_age\":3600,\"endpoints\":[{\"url\":\"https:\/\/nel.heroku.com\/reports?ts=1704861490&sid=c4c9725f-1ab0-44d8-820f-430df2718e11&s=mkC4O%2B%2B6FjAvnTJ4xHZKqt1Esrv3Qm2FbTf2MsmpiP0%3D\"}]}\n1 < Reporting-Endpoints: heroku-nel=https:\/\/nel.heroku.com\/reports?ts=1704861490&sid=c4c9725f-1ab0-44d8-820f-430df2718e11&s=mkC4O%2B%2B6FjAvnTJ4xHZKqt1Esrv3Qm2FbTf2MsmpiP0%3D\n1 < Nel: {\"report_to\":\"heroku-nel\",\"max_age\":3600,\"success_fraction\":0.005,\"failure_fraction\":0.05,\"response_headers\":[\"Via\"]}\n1 < X-Powered-By: Express\n1 < Access-Control-Allow-Origin: *\n1 < Etag: W\/\"2c1-N6Rqerxquq2kgQhL51EiSg4x0R8\"\n1 < Via: 1.1 vegur\n1 < Cache-Control: max-age=14400\n1 < CF-Cache-Status: HIT\n1 < Age: 799\n1 < Vary: Accept-Encoding\n1 < Server: cloudflare\n1 < CF-RAY: 84452ad5edcdf2ff-BOM\n{\"page\":1,\"per_page\":6,\"total\":12,\"total_pages\":2,\"data\":[{\"id\":1,\"name\":\"cerulean\",\"year\":2000,\"color\":\"#98B2D1\",\"pantone_value\":\"15-4020\"},{\"id\":2,\"name\":\"fuchsia rose\",\"year\":2001,\"color\":\"#C74375\",\"pantone_value\":\"17-2031\"},{\"id\":3,\"name\":\"true red\",\"year\":2002,\"color\":\"#BF1932\",\"pantone_value\":\"19-1664\"},{\"id\":4,\"name\":\"aqua sky\",\"year\":2003,\"color\":\"#7BC4C4\",\"pantone_value\":\"14-4811\"},{\"id\":5,\"name\":\"tigerlily\",\"year\":2004,\"color\":\"#E2583E\",\"pantone_value\":\"17-1456\"},{\"id\":6,\"name\":\"blue turquoise\",\"year\":2005,\"color\":\"#53B0AE\",\"pantone_value\":\"15-5217\"}],\"support\":{\"url\":\"https:\/\/reqres.in\/#support-heading\",\"text\":\"To keep ReqRes free, contributions towards server costs are appreciated!\"}}\n\n"},{"result":{"nanos":16700,"startTime":1705060073934,"endTime":1705060073934,"millis":0.0167,"status":"passed"},"step":{"line":10,"prefix":"Then","index":3,"text":"status 200"}},{"result":{"nanos":1179700,"startTime":1705060073934,"endTime":1705060073935,"millis":1.1797,"status":"passed"},"step":{"line":11,"prefix":"And","index":4,"text":"print response"},"stepLog":"17:17:53.935 [print] {\n  \"page\": 1,\n  \"per_page\": 6,\n  \"total\": 12,\n  \"total_pages\": 2,\n  \"data\": [\n    {\n      \"id\": 1,\n      \"name\": \"cerulean\",\n      \"year\": 2000,\n      \"color\": \"#98B2D1\",\n      \"pantone_value\": \"15-4020\"\n    },\n    {\n      \"id\": 2,\n      \"name\": \"fuchsia rose\",\n      \"year\": 2001,\n      \"color\": \"#C74375\",\n      \"pantone_value\": \"17-2031\"\n    },\n    {\n      \"id\": 3,\n      \"name\": \"true red\",\n      \"year\": 2002,\n      \"color\": \"#BF1932\",\n      \"pantone_value\": \"19-1664\"\n    },\n    {\n      \"id\": 4,\n      \"name\": \"aqua sky\",\n      \"year\": 2003,\n      \"color\": \"#7BC4C4\",\n      \"pantone_value\": \"14-4811\"\n    },\n    {\n      \"id\": 5,\n      \"name\": \"tigerlily\",\n      \"year\": 2004,\n      \"color\": \"#E2583E\",\n      \"pantone_value\": \"17-1456\"\n    },\n    {\n      \"id\": 6,\n      \"name\": \"blue turquoise\",\n      \"year\": 2005,\n      \"color\": \"#53B0AE\",\n      \"pantone_value\": \"15-5217\"\n    }\n  ],\n  \"support\": {\n    \"url\": \"https:\/\/reqres.in\/#support-heading\",\n    \"text\": \"To keep ReqRes free, contributions towards server costs are appreciated!\"\n  }\n}\n \n"},{"result":{"nanos":5572400,"startTime":1705060073935,"endTime":1705060073941,"millis":5.5724,"status":"passed"},"step":{"comments":["#complex fuzzy matcher"],"line":13,"prefix":"And","index":5,"text":"match response.data[0].id == '#? _ == 1'"}},{"result":{"nanos":6581200,"startTime":1705060073941,"endTime":1705060073948,"millis":6.5812,"status":"passed"},"step":{"comments":["#And match response.data[0].id == '#? _ != 1' this scenario will fail"],"line":15,"prefix":"And","index":6,"text":"match response.data[0].id == '#? _ >= 1'"}},{"result":{"nanos":3753900,"startTime":1705060073948,"endTime":1705060073952,"millis":3.7539,"status":"passed"},"step":{"line":16,"prefix":"And","index":7,"text":"match response.data[3].name == '#string? _.length >=1'"}},{"result":{"nanos":1154600,"startTime":1705060073952,"endTime":1705060073953,"millis":1.1546,"status":"passed"},"step":{"comments":["#And match response.data[3].name == '#string? _.length <=1' this scenario will fail as lenght is greater than 1","#to validate json array"],"line":19,"prefix":"And","index":8,"text":"match response.data == '#[]'"}},{"result":{"nanos":2590900,"startTime":1705060073953,"endTime":1705060073956,"millis":2.5909,"status":"passed"},"step":{"line":20,"prefix":"And","index":9,"text":"match response.data == '#[6]'"}}],"executorName":"pool-1-thread-2","line":6,"name":"To Validate json array fuzzy matcher","description":"","durationMillis":95.6038,"startTime":1705060073855,"failed":false,"refId":"[1:6]","endTime":1705060073955,"exampleIndex":-1}],"callDepth":0,"name":"To validate Fuzzy Matcher","description":"","resultDate":"2024-01-12 05:17:56 pm","durationMillis":95.6038,"passedCount":1}