{"failedCount":0,"prefixedPath":"classpath:com\/api\/automation\/getRequest\/JsonPathExpression.feature","packageQualifiedName":"com.api.automation.getRequest.JsonPathExpression","loopIndex":-1,"relativePath":"com\/api\/automation\/getRequest\/JsonPathExpression.feature","scenarioResults":[{"sectionIndex":0,"stepResults":[{"result":{"nanos":622200,"startTime":1705051909449,"endTime":1705051909450,"millis":0.6222,"status":"passed"},"step":{"background":true,"line":4,"prefix":"Given","index":0,"text":"url 'https:\/\/reqres.in\/'"},"stepLog":"15:01:49.448 karate.env system property was: null \n"},{"result":{"nanos":710100,"startTime":1705051909450,"endTime":1705051909451,"millis":0.7101,"status":"passed"},"step":{"line":7,"prefix":"Given","index":0,"text":"path '\/api\/users?page=2'"}},{"result":{"nanos":696100,"startTime":1705051909451,"endTime":1705051909452,"millis":0.6961,"status":"passed"},"step":{"line":8,"prefix":"And","index":1,"text":"header Accept = 'application\/json'"}},{"result":{"nanos":627235500,"startTime":1705051909451,"endTime":1705051910078,"millis":627.2355,"status":"passed"},"step":{"line":9,"prefix":"When","index":2,"text":"method get"},"stepLog":"15:01:49.453 request:\n1 > GET https:\/\/reqres.in\/api\/users%3Fpage=2\n1 > Accept: application\/json\n1 > Host: reqres.in\n1 > Connection: Keep-Alive\n1 > User-Agent: Apache-HttpClient\/4.5.14 (Java\/17.0.9)\n1 > Accept-Encoding: gzip,deflate\n\n\n15:01:50.077 response time in milliseconds: 622\n1 < 200\n1 < Date: Fri, 12 Jan 2024 09:31:50 GMT\n1 < Content-Type: application\/json; charset=utf-8\n1 < Transfer-Encoding: chunked\n1 < Connection: keep-alive\n1 < Report-To: {\"group\":\"heroku-nel\",\"max_age\":3600,\"endpoints\":[{\"url\":\"https:\/\/nel.heroku.com\/reports?ts=1705036194&sid=c4c9725f-1ab0-44d8-820f-430df2718e11&s=hBP2eNYCAbGAebGfVzCN6wX7%2BQy99gcprs6eClv00Fk%3D\"}]}\n1 < Reporting-Endpoints: heroku-nel=https:\/\/nel.heroku.com\/reports?ts=1705036194&sid=c4c9725f-1ab0-44d8-820f-430df2718e11&s=hBP2eNYCAbGAebGfVzCN6wX7%2BQy99gcprs6eClv00Fk%3D\n1 < Nel: {\"report_to\":\"heroku-nel\",\"max_age\":3600,\"success_fraction\":0.005,\"failure_fraction\":0.05,\"response_headers\":[\"Via\"]}\n1 < X-Powered-By: Express\n1 < Access-Control-Allow-Origin: *\n1 < Etag: W\/\"2c1-N6Rqerxquq2kgQhL51EiSg4x0R8\"\n1 < Via: 1.1 vegur\n1 < Cache-Control: max-age=14400\n1 < CF-Cache-Status: REVALIDATED\n1 < Vary: Accept-Encoding\n1 < Server: cloudflare\n1 < CF-RAY: 844463835d3548d6-SIN\n{\"page\":1,\"per_page\":6,\"total\":12,\"total_pages\":2,\"data\":[{\"id\":1,\"name\":\"cerulean\",\"year\":2000,\"color\":\"#98B2D1\",\"pantone_value\":\"15-4020\"},{\"id\":2,\"name\":\"fuchsia rose\",\"year\":2001,\"color\":\"#C74375\",\"pantone_value\":\"17-2031\"},{\"id\":3,\"name\":\"true red\",\"year\":2002,\"color\":\"#BF1932\",\"pantone_value\":\"19-1664\"},{\"id\":4,\"name\":\"aqua sky\",\"year\":2003,\"color\":\"#7BC4C4\",\"pantone_value\":\"14-4811\"},{\"id\":5,\"name\":\"tigerlily\",\"year\":2004,\"color\":\"#E2583E\",\"pantone_value\":\"17-1456\"},{\"id\":6,\"name\":\"blue turquoise\",\"year\":2005,\"color\":\"#53B0AE\",\"pantone_value\":\"15-5217\"}],\"support\":{\"url\":\"https:\/\/reqres.in\/#support-heading\",\"text\":\"To keep ReqRes free, contributions towards server costs are appreciated!\"}}\n\n"},{"result":{"nanos":15800,"startTime":1705051910079,"endTime":1705051910079,"millis":0.0158,"status":"passed"},"step":{"line":10,"prefix":"Then","index":3,"text":"status 200"}},{"result":{"nanos":1775300,"startTime":1705051910079,"endTime":1705051910081,"millis":1.7753,"status":"passed"},"step":{"line":11,"prefix":"And","index":4,"text":"print response"},"stepLog":"15:01:50.080 [print] {\n  \"page\": 1,\n  \"per_page\": 6,\n  \"total\": 12,\n  \"total_pages\": 2,\n  \"data\": [\n    {\n      \"id\": 1,\n      \"name\": \"cerulean\",\n      \"year\": 2000,\n      \"color\": \"#98B2D1\",\n      \"pantone_value\": \"15-4020\"\n    },\n    {\n      \"id\": 2,\n      \"name\": \"fuchsia rose\",\n      \"year\": 2001,\n      \"color\": \"#C74375\",\n      \"pantone_value\": \"17-2031\"\n    },\n    {\n      \"id\": 3,\n      \"name\": \"true red\",\n      \"year\": 2002,\n      \"color\": \"#BF1932\",\n      \"pantone_value\": \"19-1664\"\n    },\n    {\n      \"id\": 4,\n      \"name\": \"aqua sky\",\n      \"year\": 2003,\n      \"color\": \"#7BC4C4\",\n      \"pantone_value\": \"14-4811\"\n    },\n    {\n      \"id\": 5,\n      \"name\": \"tigerlily\",\n      \"year\": 2004,\n      \"color\": \"#E2583E\",\n      \"pantone_value\": \"17-1456\"\n    },\n    {\n      \"id\": 6,\n      \"name\": \"blue turquoise\",\n      \"year\": 2005,\n      \"color\": \"#53B0AE\",\n      \"pantone_value\": \"15-5217\"\n    }\n  ],\n  \"support\": {\n    \"url\": \"https:\/\/reqres.in\/#support-heading\",\n    \"text\": \"To keep ReqRes free, contributions towards server costs are appreciated!\"\n  }\n}\n \n"},{"result":{"nanos":38527800,"startTime":1705051910081,"endTime":1705051910120,"millis":38.5278,"status":"passed"},"step":{"comments":["# karate.jsonPath(doc,jsonpath expression)"],"line":13,"prefix":"*","index":5,"text":"def book1 = karate.jsonPath(response, \"$[?(@.book)]\")"}},{"result":{"nanos":1097800,"startTime":1705051910119,"endTime":1705051910120,"millis":1.0978,"status":"passed"},"step":{"line":14,"prefix":"And","index":6,"text":"print \"JsonArrayBook\", book1"},"stepLog":"15:01:50.120 [print] JsonArrayBook [\n]\n \n"}],"executorName":"pool-1-thread-5","line":6,"name":"To get the value of property using json path expression","description":"","durationMillis":670.6806,"startTime":1705051909445,"failed":false,"refId":"[1:6]","endTime":1705051910121,"exampleIndex":-1}],"callDepth":0,"name":"json path validator","description":"","resultDate":"2024-01-12 03:01:51 pm","durationMillis":670.6806,"passedCount":1}