{"failedCount":0,"prefixedPath":"classpath:com\/api\/automation\/getRequest\/ValidationUsingFile.feature","packageQualifiedName":"com.api.automation.getRequest.ValidationUsingFile","loopIndex":-1,"relativePath":"com\/api\/automation\/getRequest\/ValidationUsingFile.feature","scenarioResults":[{"sectionIndex":0,"stepResults":[{"result":{"nanos":898400,"startTime":1705059312944,"endTime":1705059312945,"millis":0.8984,"status":"passed"},"step":{"background":true,"line":4,"prefix":"Given","index":0,"text":"url 'https:\/\/reqres.in\/'"},"stepLog":"17:05:12.944 karate.env system property was: null \n"},{"result":{"nanos":528400,"startTime":1705059312945,"endTime":1705059312946,"millis":0.5284,"status":"passed"},"step":{"line":7,"prefix":"Given","index":0,"text":"path '\/api\/users?page=2'"}},{"result":{"nanos":194100,"startTime":1705059312946,"endTime":1705059312946,"millis":0.1941,"status":"passed"},"step":{"line":8,"prefix":"And","index":1,"text":"header Accept = 'application\/json'"}},{"result":{"nanos":771799900,"startTime":1705059312946,"endTime":1705059313718,"millis":771.7999,"status":"passed"},"step":{"line":9,"prefix":"When","index":2,"text":"method get"},"stepLog":"17:05:12.947 request:\n1 > GET https:\/\/reqres.in\/api\/users%3Fpage=2\n1 > Accept: application\/json\n1 > Host: reqres.in\n1 > Connection: Keep-Alive\n1 > User-Agent: Apache-HttpClient\/4.5.14 (Java\/17.0.9)\n1 > Accept-Encoding: gzip,deflate\n\n\n17:05:13.718 response time in milliseconds: 770\n1 < 200\n1 < Date: Fri, 12 Jan 2024 11:35:13 GMT\n1 < Content-Type: application\/json; charset=utf-8\n1 < Transfer-Encoding: chunked\n1 < Connection: keep-alive\n1 < Report-To: {\"group\":\"heroku-nel\",\"max_age\":3600,\"endpoints\":[{\"url\":\"https:\/\/nel.heroku.com\/reports?ts=1704286221&sid=c4c9725f-1ab0-44d8-820f-430df2718e11&s=n7%2Bk0Y5iFTPglhMmWedlnJIb1DtAkvSJ%2FuBivtGDmgU%3D\"}]}\n1 < Reporting-Endpoints: heroku-nel=https:\/\/nel.heroku.com\/reports?ts=1704286221&sid=c4c9725f-1ab0-44d8-820f-430df2718e11&s=n7%2Bk0Y5iFTPglhMmWedlnJIb1DtAkvSJ%2FuBivtGDmgU%3D\n1 < Nel: {\"report_to\":\"heroku-nel\",\"max_age\":3600,\"success_fraction\":0.005,\"failure_fraction\":0.05,\"response_headers\":[\"Via\"]}\n1 < X-Powered-By: Express\n1 < Access-Control-Allow-Origin: *\n1 < Etag: W\/\"2c1-N6Rqerxquq2kgQhL51EiSg4x0R8\"\n1 < Via: 1.1 vegur\n1 < Cache-Control: max-age=14400\n1 < CF-Cache-Status: REVALIDATED\n1 < Vary: Accept-Encoding\n1 < Server: cloudflare\n1 < CF-RAY: 844518422a59852b-BOM\n{\"page\":1,\"per_page\":6,\"total\":12,\"total_pages\":2,\"data\":[{\"id\":1,\"name\":\"cerulean\",\"year\":2000,\"color\":\"#98B2D1\",\"pantone_value\":\"15-4020\"},{\"id\":2,\"name\":\"fuchsia rose\",\"year\":2001,\"color\":\"#C74375\",\"pantone_value\":\"17-2031\"},{\"id\":3,\"name\":\"true red\",\"year\":2002,\"color\":\"#BF1932\",\"pantone_value\":\"19-1664\"},{\"id\":4,\"name\":\"aqua sky\",\"year\":2003,\"color\":\"#7BC4C4\",\"pantone_value\":\"14-4811\"},{\"id\":5,\"name\":\"tigerlily\",\"year\":2004,\"color\":\"#E2583E\",\"pantone_value\":\"17-1456\"},{\"id\":6,\"name\":\"blue turquoise\",\"year\":2005,\"color\":\"#53B0AE\",\"pantone_value\":\"15-5217\"}],\"support\":{\"url\":\"https:\/\/reqres.in\/#support-heading\",\"text\":\"To keep ReqRes free, contributions towards server costs are appreciated!\"}}\n\n"},{"result":{"nanos":11500,"startTime":1705059313719,"endTime":1705059313719,"millis":0.0115,"status":"passed"},"step":{"line":10,"prefix":"Then","index":3,"text":"status 200"}},{"result":{"nanos":3812400,"startTime":1705059313719,"endTime":1705059313723,"millis":3.8124,"status":"passed"},"step":{"line":11,"prefix":"*","index":4,"text":"def actualResponse = read(\"..\/JsonResponse1.json\")"}},{"result":{"nanos":1102600,"startTime":1705059313723,"endTime":1705059313724,"millis":1.1026,"status":"passed"},"step":{"line":12,"prefix":"And","index":5,"text":"match response == actualResponse"}},{"result":{"nanos":2597600,"startTime":1705059313724,"endTime":1705059313727,"millis":2.5976,"status":"passed"},"step":{"line":13,"prefix":"And","index":6,"text":"print actualResponse"},"stepLog":"17:05:13.726 [print] {\n  \"page\": 1,\n  \"per_page\": 6,\n  \"total\": 12,\n  \"total_pages\": 2,\n  \"data\": [\n    {\n      \"id\": 1,\n      \"name\": \"cerulean\",\n      \"year\": 2000,\n      \"color\": \"#98B2D1\",\n      \"pantone_value\": \"15-4020\"\n    },\n    {\n      \"id\": 2,\n      \"name\": \"fuchsia rose\",\n      \"year\": 2001,\n      \"color\": \"#C74375\",\n      \"pantone_value\": \"17-2031\"\n    },\n    {\n      \"id\": 3,\n      \"name\": \"true red\",\n      \"year\": 2002,\n      \"color\": \"#BF1932\",\n      \"pantone_value\": \"19-1664\"\n    },\n    {\n      \"id\": 4,\n      \"name\": \"aqua sky\",\n      \"year\": 2003,\n      \"color\": \"#7BC4C4\",\n      \"pantone_value\": \"14-4811\"\n    },\n    {\n      \"id\": 5,\n      \"name\": \"tigerlily\",\n      \"year\": 2004,\n      \"color\": \"#E2583E\",\n      \"pantone_value\": \"17-1456\"\n    },\n    {\n      \"id\": 6,\n      \"name\": \"blue turquoise\",\n      \"year\": 2005,\n      \"color\": \"#53B0AE\",\n      \"pantone_value\": \"15-5217\"\n    }\n  ],\n  \"support\": {\n    \"url\": \"https:\/\/reqres.in\/#support-heading\",\n    \"text\": \"To keep ReqRes free, contributions towards server costs are appreciated!\"\n  }\n}\n \n"}],"executorName":"pool-1-thread-1","line":6,"name":"To Validate json array fuzzy matcher","description":"","durationMillis":780.9449,"startTime":1705059312942,"failed":false,"refId":"[1:6]","endTime":1705059313727,"exampleIndex":-1}],"callDepth":0,"name":"To validate using file","description":"","resultDate":"2024-01-12 05:05:15 pm","durationMillis":780.9449,"passedCount":1}