{"failedCount":0,"prefixedPath":"classpath:com\/api\/automation\/getRequest\/ValidateFuzzyMatcher.feature","packageQualifiedName":"com.api.automation.getRequest.ValidateFuzzyMatcher","loopIndex":-1,"relativePath":"com\/api\/automation\/getRequest\/ValidateFuzzyMatcher.feature","scenarioResults":[{"sectionIndex":0,"stepResults":[{"result":{"nanos":804400,"startTime":1705052434773,"endTime":1705052434774,"millis":0.8044,"status":"passed"},"step":{"background":true,"line":4,"prefix":"Given","index":0,"text":"url 'https:\/\/reqres.in\/'"},"stepLog":"15:10:34.771 karate.env system property was: null \n"},{"result":{"nanos":928200,"startTime":1705052434773,"endTime":1705052434774,"millis":0.9282,"status":"passed"},"step":{"line":7,"prefix":"Given","index":0,"text":"path '\/api\/users?page=2'"}},{"result":{"nanos":215400,"startTime":1705052434775,"endTime":1705052434775,"millis":0.2154,"status":"passed"},"step":{"line":8,"prefix":"And","index":1,"text":"header Accept = 'application\/json'"}},{"result":{"nanos":255428300,"startTime":1705052434775,"endTime":1705052435030,"millis":255.4283,"status":"passed"},"step":{"line":9,"prefix":"When","index":2,"text":"method get"},"stepLog":"15:10:34.776 request:\n1 > GET https:\/\/reqres.in\/api\/users%3Fpage=2\n1 > Accept: application\/json\n1 > Host: reqres.in\n1 > Connection: Keep-Alive\n1 > User-Agent: Apache-HttpClient\/4.5.14 (Java\/17.0.9)\n1 > Accept-Encoding: gzip,deflate\n\n\n15:10:35.028 response time in milliseconds: 251\n1 < 200\n1 < Date: Fri, 12 Jan 2024 09:40:34 GMT\n1 < Content-Type: application\/json; charset=utf-8\n1 < Transfer-Encoding: chunked\n1 < Connection: keep-alive\n1 < Report-To: {\"group\":\"heroku-nel\",\"max_age\":3600,\"endpoints\":[{\"url\":\"https:\/\/nel.heroku.com\/reports?ts=1705036194&sid=c4c9725f-1ab0-44d8-820f-430df2718e11&s=hBP2eNYCAbGAebGfVzCN6wX7%2BQy99gcprs6eClv00Fk%3D\"}]}\n1 < Reporting-Endpoints: heroku-nel=https:\/\/nel.heroku.com\/reports?ts=1705036194&sid=c4c9725f-1ab0-44d8-820f-430df2718e11&s=hBP2eNYCAbGAebGfVzCN6wX7%2BQy99gcprs6eClv00Fk%3D\n1 < Nel: {\"report_to\":\"heroku-nel\",\"max_age\":3600,\"success_fraction\":0.005,\"failure_fraction\":0.05,\"response_headers\":[\"Via\"]}\n1 < X-Powered-By: Express\n1 < Access-Control-Allow-Origin: *\n1 < Etag: W\/\"2c1-N6Rqerxquq2kgQhL51EiSg4x0R8\"\n1 < Via: 1.1 vegur\n1 < Cache-Control: max-age=14400\n1 < CF-Cache-Status: HIT\n1 < Age: 524\n1 < Vary: Accept-Encoding\n1 < Server: cloudflare\n1 < CF-RAY: 844470569ce66005-SIN\n{\"page\":1,\"per_page\":6,\"total\":12,\"total_pages\":2,\"data\":[{\"id\":1,\"name\":\"cerulean\",\"year\":2000,\"color\":\"#98B2D1\",\"pantone_value\":\"15-4020\"},{\"id\":2,\"name\":\"fuchsia rose\",\"year\":2001,\"color\":\"#C74375\",\"pantone_value\":\"17-2031\"},{\"id\":3,\"name\":\"true red\",\"year\":2002,\"color\":\"#BF1932\",\"pantone_value\":\"19-1664\"},{\"id\":4,\"name\":\"aqua sky\",\"year\":2003,\"color\":\"#7BC4C4\",\"pantone_value\":\"14-4811\"},{\"id\":5,\"name\":\"tigerlily\",\"year\":2004,\"color\":\"#E2583E\",\"pantone_value\":\"17-1456\"},{\"id\":6,\"name\":\"blue turquoise\",\"year\":2005,\"color\":\"#53B0AE\",\"pantone_value\":\"15-5217\"}],\"support\":{\"url\":\"https:\/\/reqres.in\/#support-heading\",\"text\":\"To keep ReqRes free, contributions towards server costs are appreciated!\"}}\n\n"},{"result":{"nanos":24100,"startTime":1705052435030,"endTime":1705052435030,"millis":0.0241,"status":"passed"},"step":{"line":10,"prefix":"Then","index":3,"text":"status 200"}},{"result":{"nanos":1232200,"startTime":1705052435030,"endTime":1705052435031,"millis":1.2322,"status":"passed"},"step":{"line":11,"prefix":"And","index":4,"text":"print response"},"stepLog":"15:10:35.031 [print] {\n  \"page\": 1,\n  \"per_page\": 6,\n  \"total\": 12,\n  \"total_pages\": 2,\n  \"data\": [\n    {\n      \"id\": 1,\n      \"name\": \"cerulean\",\n      \"year\": 2000,\n      \"color\": \"#98B2D1\",\n      \"pantone_value\": \"15-4020\"\n    },\n    {\n      \"id\": 2,\n      \"name\": \"fuchsia rose\",\n      \"year\": 2001,\n      \"color\": \"#C74375\",\n      \"pantone_value\": \"17-2031\"\n    },\n    {\n      \"id\": 3,\n      \"name\": \"true red\",\n      \"year\": 2002,\n      \"color\": \"#BF1932\",\n      \"pantone_value\": \"19-1664\"\n    },\n    {\n      \"id\": 4,\n      \"name\": \"aqua sky\",\n      \"year\": 2003,\n      \"color\": \"#7BC4C4\",\n      \"pantone_value\": \"14-4811\"\n    },\n    {\n      \"id\": 5,\n      \"name\": \"tigerlily\",\n      \"year\": 2004,\n      \"color\": \"#E2583E\",\n      \"pantone_value\": \"17-1456\"\n    },\n    {\n      \"id\": 6,\n      \"name\": \"blue turquoise\",\n      \"year\": 2005,\n      \"color\": \"#53B0AE\",\n      \"pantone_value\": \"15-5217\"\n    }\n  ],\n  \"support\": {\n    \"url\": \"https:\/\/reqres.in\/#support-heading\",\n    \"text\": \"To keep ReqRes free, contributions towards server costs are appreciated!\"\n  }\n}\n \n"},{"result":{"nanos":4635200,"startTime":1705052435031,"endTime":1705052435036,"millis":4.6352,"status":"passed"},"step":{"comments":["#complex fuzzy matcher"],"line":13,"prefix":"And","index":5,"text":"match response.data[0].id == '#? _ == 1'"}},{"result":{"nanos":6625700,"startTime":1705052435036,"endTime":1705052435043,"millis":6.6257,"status":"passed"},"step":{"comments":["#And match response.data[0].id == '#? _ != 1' this scenario will fail"],"line":15,"prefix":"And","index":6,"text":"match response.data[0].id == '#? _ >= 1'"}},{"result":{"nanos":3400200,"startTime":1705052435042,"endTime":1705052435045,"millis":3.4002,"status":"passed"},"step":{"line":16,"prefix":"And","index":7,"text":"match response.data[3].name == '#string? _.length >=1'"}},{"result":{"nanos":1016800,"startTime":1705052435046,"endTime":1705052435047,"millis":1.0168,"status":"passed"},"step":{"comments":["#And match response.data[3].name == '#string? _.length <=1' this scenario will fail as lenght is greater than 1","#to validate json array"],"line":19,"prefix":"And","index":8,"text":"match response.data == '#[]'"}},{"result":{"nanos":2002500,"startTime":1705052435047,"endTime":1705052435049,"millis":2.0025,"status":"passed"},"step":{"line":20,"prefix":"And","index":9,"text":"match response.data == '#[6]'"}}],"executorName":"pool-1-thread-2","line":6,"name":"To Validate json array fuzzy matcher","description":"","durationMillis":276.313,"startTime":1705052434770,"failed":false,"refId":"[1:6]","endTime":1705052435049,"exampleIndex":-1}],"callDepth":0,"name":"To validate Fuzzy Matcher","description":"","resultDate":"2024-01-12 03:10:36 pm","durationMillis":276.313,"passedCount":1}